module codeberg.org/steffenfritz/terminvent

go 1.17

require (
	github.com/Ullaakut/nmap/v2 v2.2.0
	github.com/mattn/go-sqlite3 v1.14.9
	github.com/spf13/pflag v1.0.5
)

require (
	github.com/pkg/errors v0.9.1 // indirect
	golang.org/x/sync v0.0.0-20201207232520-09787c993a3a // indirect
)
